{
	"name": "ForsakenRP Tweaks",
	"description": "Some tweaks for Forsaken Lands RP Server of Conan Exiles\n- No feat points gain per level\n- 10 million points required per level\n- 2,14 billion points required to gain 60 level\n- All the vanilla attributes you will gain at 59 lvl instead of 60 lvl\n\nItems and feats for learning:\n100200 - Blacksmith T1\n100201 - Blacksmith T1+\n100202 - Blacksmith T1++\n\n100203 - Blacksmith T2\n100204 - Blacksmith T2+\n100205 - Blacksmith T2++\n\n100206 - Blacksmith T3\n100207 - Blacksmith T3+\n100208 - Blacksmith T3++\n\n100209 - Obsidian Processing - Obsidian weapons\n100210 - Serpentmen Legacy - Serpentmen weapons\n100211 - Frost Smithing - Blackice weapons\n100212 - Lemurian Legacy - Lemurian weapons\n100213 - Bonecraft Art - Dragonbone weapons\n100214 - Abyss Cry - Abyssmal weapons\n100215 - Lemurian War Wisdom - Ancient Lemurian Weapons (Dagon weapons)\n51022 (Learning Item ID - 10051022) - Katana\n81019 (Learning Item ID - 10081019)- Vanquisher of King Beneath\nExternal Mod Feat - 9999789 (Learning Item ID - 1009999789) - Hardened Steel Dual Katana\n\n100216 - Armorsmith T1\n100217 - Armorsmith T1+\n100218 - Armorsmith T2\n100219 - Armorsmith T2+\n100220 - Armorsmith T3\n100221 - Armorsmith T3+\n100222 - Khari medium and heavy Armor\nVanilla feats:\n52498 - Pirate set (Learning item ID - 10052498)\n41008 - Dagon shield (Learning item ID - 10041008)\n51482 - Obsidian shield (Learning item ID - 10051482)\n51508 - Serpentmen shield (Learning item ID - 10051508)\n51991 - Dragonbone (Learning item ID - 10051991)\n99931 - Barbarian Armor (Learning item ID - 10099931)\n52483 - Relic Hunter Armor (Learning item ID - 10052483)\n52951 - Cursed Mask (Learning item ID - 10052951)\n52486 - Hyena Armor (Learning item ID - 10052486)\n95001 - Reptile Armor (Learning item ID - 10095001)\n52604 - Silent Legion (Learning item ID - 10052604)\n91329 - Aesia Pride (Learning item ID - 10091329)\n41002 - Godbreaker Armor (Learning item ID - 10041002)\n41001 - Arena Champion's Armor (Learning item ID - 10041001)\n52451 - Lemurian Armor (Learning item ID - 10052451)\n18218 - Black Corsair Armor (Learning item ID - 10018218)\n52466 - Queen's Armor (Learning item ID - 10052466)\n52484 - Epic Reptile Armor (Learning item ID - 10052484)\n52487 - Epic Hyen Armor (Learning item ID - 10052487)\n52482 - Epic Relic Hunter Armor (Learning item ID - 10052482)\n15024 - Skelos Cult Armor (Learning item ID - 10015024)\n15029 - Yog's Mask (Learning item ID - 10015029)\n\n100223 - Carpenter T1\n100224 - Carpenter T1+\n100225 - Carpenter T2\n100226 - Carpenter T2+\n100227 - Carpenter T3\n100228 - Carpenter T3+\n\n100229 - Builder T1\n100230 - Builder T1+\n100231 - Builder T2\n100232 - Builder T2+\n100233 - Builder T3\n100234 - Builder T3+\n\n100235 - Cook T1\n100236 - Brewer T1+\n100237 - Alchemist T1++\n100238 - Cook T2\n100239 - Brewer T2+\n100240 - Alchemist T2++\n100241 - Cook T3\n100242 - Brewer T3+\n100243 - Alchemist T3++\n\n95005 - Abyssmal Arrows (Learning item ID - 10095005)\n51480 - Obsidian Arrows (Learning item ID - 10051480)\n51529 - Serpentmen Arrows (Learning item ID - 10051529)\n54003 - Dragonbone Bow (Learning item ID - 10054003)\n52498 - Buccaneer Armor - Carpenter version (Learning item ID - 10152498)\n15026 - Essense of Rot (Learning item ID - 10015026)\n80533 - Witch Doctor (Learning item ID - 10080533)\n\nAdded a couple of quest items\n\nRedefinde religious altars. The new ones are with prefix 100<old_ID>\nAdded a couple of starting feats\n\nRemoved feats:\nKhar weapons\nDarfarian weapons\nDagon daggers\nDual Dagger of Berserk\nDLC helmets\nAncient king armor\nBurial epic armor\nCanibal rider armor epic\nChaos warrior armor\nDark order Epic\nHighlander armor epic\nInsilated wanderers set epic\nKushit tiable wear epic\nRed sonia\nValusian battle epic\nKhari bow\nElevators\nSiedge machines\n\nRedefined cooking and brewing lore items. You can't learn them in the world anymore.\n\nWelcome to hard RP",
	"changeNote": "Update to new DevKit",
	"author": "Forsaken Lands",
	"authorUrl": "http://forsaken-land.wargm.ru",
	"versionMajor": 1,
	"versionMinor": 0,
	"versionBuild": 15,
	"bRequiresLoadOnStartup": false,
	"steamPublishedFileId": "1830511705",
	"steamVisibility": 0,
	"folderName": "ForsakenRP_Tweaks",
	"revisionNumber": 253050,
	"snapshotId": 26835
}